<svg _ngcontent-joo-c30="" xmlns:xlink="http://www.w3.org/1999/xlink" height="14px" version="1.1" viewBox="0 0 20 14" width="20px" xmlns="http://www.w3.org/2000/svg" class="ng-star-inserted">
<desc _ngcontent-joo-c30="">Created with Sketch.
</desc>
<g _ngcontent-joo-c30="" fill="red" fill-rule="evenodd" id="Admin-Panel" stroke="none" stroke-linecap="round" stroke-linejoin="round" stroke-width="1">
<g _ngcontent-joo-c30="" class="stroke-color" id="Step-1-Copy-3" stroke="#4785EF" stroke-width="2" transform="translate(-17.000000, -198.000000)">
<g _ngcontent-joo-c30="" id="Group-2">
<g _ngcontent-joo-c30="" id="Side-Menu">
<g _ngcontent-joo-c30="" id="Catalog" transform="translate(0.000000, 184.000000)">
<g _ngcontent-joo-c30="" id="Group-6" transform="translate(17.505000, 14.500000)">
<path _ngcontent-joo-c30="" d="M5.495,0.5 L18.495,0.5" id="Line_70">
</path>
<path _ngcontent-joo-c30="" d="M5.495,6.5 L18.495,6.5" id="Line_71">
</path>
<path _ngcontent-joo-c30="" d="M5.495,12.5 L18.495,12.5" id="Line_72">
</path>
<path _ngcontent-joo-c30="" d="M0.495,0.5 L0.505,0.5" id="Line_73">
</path>

<path _ngcontent-joo-c30="" d="M0.495,6.5 L0.505,6.5" id="Line_74">
</path>
<path _ngcontent-joo-c30="" d="M0.495,12.5 L0.505,12.5" id="Line_75">
</path>
</g>
</g>
</g>
</g>
</g>
</g>
</svg>